…
# event snapshot unchanged

    Code
      lunges$events
    Output
      Events
        6 deployments.
        With 218 events.

---

    Code
      events_df
    Output
      # A tibble: 218 x 2
         datetime            deployid   
       * <dttm>              <chr>      
       1 2018-09-05 11:59:53 bw180905-53
       2 2018-09-05 12:01:54 bw180905-53
       3 2018-09-05 12:03:58 bw180905-53
       4 2018-09-05 12:05:58 bw180905-53
       5 2018-09-05 12:14:39 bw180905-53
       6 2018-09-05 12:16:41 bw180905-53
       7 2018-09-05 12:18:48 bw180905-53
       8 2018-09-05 12:20:57 bw180905-53
       9 2018-09-05 12:23:08 bw180905-53
      10 2018-09-05 12:31:42 bw180905-53
      # ... with 208 more rows
