# predictions and outcomes match snapshots

    Predictions
      3 deployments.
      With 117 predicted events.

---

    Outcomes 
    # A tibble: 3 x 4
      deployid       TP    FP    FN
      <chr>       <int> <int> <int>
    1 bw180905-42    43     4     3
    2 bw180905-49    40     2     4
    3 bw180905-53    25     3     1

---

          deployid            datetime local_proba predicted
    1  bw180905-53 2018-09-05 11:55:52           0     FALSE
    2  bw180905-53 2018-09-05 11:55:52           0     FALSE
    3  bw180905-53 2018-09-05 11:55:52           0     FALSE
    4  bw180905-53 2018-09-05 11:55:52           0     FALSE
    5  bw180905-53 2018-09-05 11:55:52           0     FALSE
    6  bw180905-53 2018-09-05 11:55:52           0     FALSE
    7  bw180905-53 2018-09-05 11:55:53           0     FALSE
    8  bw180905-53 2018-09-05 11:55:53           0     FALSE
    9  bw180905-53 2018-09-05 11:55:53           0     FALSE
    10 bw180905-53 2018-09-05 11:55:53           0     FALSE
    11 bw180905-53 2018-09-05 11:55:53           0     FALSE
    12 bw180905-53 2018-09-05 11:55:53           0     FALSE
     [ reached 'max' / getOption("max.print") -- omitted 215988 rows ]
…
